<?xml version="1.0" encoding="UTF-8"?>
<svg enable-background="new 0 0 41 26" version="1.1" viewBox="0 0 41 26" xml:space="preserve" xmlns="http://www.w3.org/2000/svg">
	<path d="m41 3.6c0 1.2-1.8 1.2-1.8 0s1.8-1.3 1.8 0"/>
	<path d="m41 6.2c0 1.2-1.8 1.2-1.8 0s1.8-1.2 1.8 0"/>
	<path d="m38.4 3.6c0 1.2-1.9 1.2-1.9 0s1.9-1.3 1.9 0"/>
	<path d="m38.4 6.2c0 1.2-1.8 1.2-1.8 0-0.1-1.2 1.8-1.2 1.8 0"/>
	<path d="m38.4 21.8c0 1.2-1.8 1.2-1.8 0-0.1-1.2 1.8-1.2 1.8 0"/>
	<path d="m35.8 1c0 1.2-1.8 1.2-1.8 0s1.8-1.3 1.8 0"/>
	<path d="m35.8 3.6c0 1.2-1.8 1.2-1.8 0s1.8-1.3 1.8 0"/>
	<path d="m35.8 6.2c0 1.2-1.8 1.2-1.8 0-0.1-1.2 1.8-1.2 1.8 0"/>
	<path d="m34.9 9.7c-0.5 0-0.9-0.4-0.9-0.9s0.4-0.9 0.9-0.9 0.9 0.4 0.9 0.9-0.4 0.9-0.9 0.9z"/>
	<path d="m35.8 16.6c0 1.2-1.8 1.2-1.8 0s1.8-1.2 1.8 0"/>
	<path d="m35.8 19.2c0 1.2-1.8 1.2-1.8 0-0.1-1.2 1.8-1.2 1.8 0"/>
	<path d="m33.2 3.6c0 1.2-1.8 1.2-1.8 0s1.8-1.3 1.8 0"/>
	<path d="m33.2 6.2c0 1.2-1.8 1.2-1.8 0-0.1-1.2 1.8-1.2 1.8 0"/>
	<path d="m33.2 8.8c0 1.2-1.8 1.2-1.8 0-0.1-1.2 1.8-1.2 1.8 0"/>
	<path d="m33.2 11.4c0 1.2-1.8 1.2-1.8 0-0.1-1.2 1.8-1.2 1.8 0"/>
	<path d="m33.2 14c0 1.2-1.8 1.2-1.8 0s1.8-1.2 1.8 0"/>
	<path d="m33.2 19.2c0 1.2-1.8 1.2-1.8 0-0.1-1.2 1.8-1.2 1.8 0"/>
	<path d="m30.6 1c0 1.2-1.8 1.2-1.8 0s1.8-1.3 1.8 0"/>
	<path d="m30.6 3.6c0 1.2-1.8 1.2-1.8 0s1.8-1.3 1.8 0"/>
	<path d="m30.6 6.2c0 1.2-1.8 1.2-1.8 0-0.1-1.2 1.8-1.2 1.8 0"/>
	<path d="m29.6 9.7c-0.5 0-0.9-0.4-0.9-0.9s0.4-0.9 0.9-0.9 0.9 0.4 0.9 0.9c0.1 0.5-0.4 0.9-0.9 0.9z"/>
	<path d="m30.6 11.4c0 1.2-1.8 1.2-1.8 0s1.8-1.2 1.8 0"/>
	<path d="m30.6 14c0 1.2-1.8 1.2-1.8 0s1.8-1.2 1.8 0"/>
	<path d="M28,1c0,1.2-1.8,1.2-1.8,0S28-0.3,28,1"/>
	<path d="m28 3.6c0 1.2-1.8 1.2-1.8 0s1.8-1.3 1.8 0"/>
	<path d="M28,6.2c0,1.2-1.8,1.2-1.8,0C26.1,5,28,5,28,6.2"/>
	<path d="m28 8.8c0 1.2-1.8 1.2-1.8 0s1.8-1.2 1.8 0"/>
	<path d="m28 11.4c0 1.2-1.8 1.2-1.8 0s1.8-1.2 1.8 0"/>
	<path d="m24.4 4.5c-0.5 0-0.9-0.4-0.9-0.9s0.4-0.9 0.9-0.9 0.9 0.4 0.9 0.9-0.4 0.9-0.9 0.9z"/>
	<path d="m25.3 6.2c0 1.2-1.8 1.2-1.8 0s1.8-1.2 1.8 0"/>
	<path d="m24.4 9.7c-0.5 0-0.9-0.4-0.9-0.9s0.4-0.9 0.9-0.9 0.9 0.4 0.9 0.9-0.4 0.9-0.9 0.9z"/>
	<path d="m25.3 11.4c0 1.2-1.8 1.2-1.8 0s1.8-1.2 1.8 0"/>
	<path d="m22.7 11.4c0 1.2-1.8 1.2-1.8 0s1.8-1.2 1.8 0"/>
	<path d="m25.3 14c0 1.2-1.8 1.2-1.8 0s1.8-1.2 1.8 0"/>
	<path d="m22.7 1c0 1.2-1.8 1.2-1.8 0s1.8-1.3 1.8 0"/>
	<path d="m22.7 3.6c0 1.2-1.8 1.2-1.8 0s1.8-1.3 1.8 0"/>
	<path d="m22.7 6.2c0 1.2-1.8 1.2-1.8 0s1.8-1.2 1.8 0"/>
	<path d="m21.8 9.7c-0.5 0-0.9-0.4-0.9-0.9s0.4-0.9 0.9-0.9 0.9 0.4 0.9 0.9-0.4 0.9-0.9 0.9z"/>
	<path d="m22.7 14c0 1.2-1.8 1.2-1.8 0s1.8-1.2 1.8 0"/>
	<path d="m22.7 16.6c0 1.2-1.8 1.2-1.8 0s1.8-1.2 1.8 0"/>
	<path d="m20.2 16.6c0 1.2-1.8 1.2-1.8 0s1.8-1.2 1.8 0"/>
	<path d="m22.7 19.2c0 1.2-1.8 1.2-1.8 0s1.8-1.2 1.8 0"/>
	<path d="m20.1 6.2c0 1.2-1.8 1.2-1.8 0s1.8-1.2 1.8 0"/>
	<path d="m20.1 8.8c0 1.2-1.8 1.2-1.8 0s1.8-1.2 1.8 0"/>
	<path d="m19.2 12.3c-0.5 0-0.9-0.4-0.9-0.9s0.4-0.9 0.9-0.9 0.9 0.4 0.9 0.9-0.4 0.9-0.9 0.9z"/>
	<path d="m16.6 12.3c-0.5 0-0.9-0.4-0.9-0.9s0.4-0.9 0.9-0.9 0.9 0.4 0.9 0.9-0.4 0.9-0.9 0.9z"/>
	<path d="m20.1 14c0 1.2-1.8 1.2-1.8 0s1.8-1.2 1.8 0"/>
	<path d="m17.5 1c0 1.2-1.8 1.2-1.8 0s1.8-1.3 1.8 0"/>
	<path d="m17.5 3.6c0 1.2-1.8 1.2-1.8 0s1.8-1.3 1.8 0"/>
	<path d="m17.5 14c0 1.2-1.8 1.2-1.8 0s1.8-1.2 1.8 0"/>
	<path d="m14.9 1c0 1.2-1.8 1.2-1.8 0s1.8-1.3 1.8 0"/>
	<path d="m14.9 3.6c0 1.2-1.8 1.2-1.8 0s1.8-1.3 1.8 0"/>
	<path d="M14.9,6.2c0,1.2-1.8,1.2-1.8,0C13,5,14.9,5,14.9,6.2"/>
	<path d="m14.9 16.6c0 1.2-1.8 1.2-1.8 0s1.8-1.2 1.8 0"/>
	<path d="m14.9 19.2c0 1.2-1.8 1.2-1.8 0-0.1-1.2 1.8-1.2 1.8 0"/>
	<path d="m12.3 1c0 1.2-1.8 1.2-1.8 0s1.8-1.3 1.8 0"/>
	<path d="m12.3 6.2c0 1.2-1.8 1.2-1.8 0-0.1-1.2 1.8-1.2 1.8 0"/>
	<path d="m12.3 8.8c0 1.2-1.8 1.2-1.8 0-0.1-1.2 1.8-1.2 1.8 0"/>
	<path d="m12.3 14c0 1.2-1.8 1.2-1.8 0s1.8-1.2 1.8 0"/>
	<path d="m12.3 16.6c0 1.2-1.8 1.2-1.8 0s1.8-1.2 1.8 0"/>
	<path d="m9.7 16.6c0 1.2-1.8 1.2-1.8 0s1.8-1.2 1.8 0"/>
	<path d="m12.3 19.2c0 1.2-1.8 1.2-1.8 0-0.1-1.2 1.8-1.2 1.8 0"/>
	<path d="m12.3 21.8c0 1.2-1.8 1.2-1.8 0-0.1-1.2 1.8-1.2 1.8 0"/>
	<path d="m12.3 24.5c0 1.2-1.8 1.2-1.8 0-0.1-1.3 1.8-1.3 1.8 0"/>
	<path d="m9.7 1c0 1.2-1.8 1.2-1.8 0s1.8-1.3 1.8 0"/>
	<path d="m9.7 3.6c0 1.2-1.8 1.2-1.8 0s1.8-1.3 1.8 0"/>
	<path d="M9.7,6.2c0,1.2-1.8,1.2-1.8,0C7.8,5,9.7,5,9.7,6.2"/>
	<path d="m8.8 9.7c-0.5 0-0.9-0.4-0.9-0.9s0.4-0.9 0.9-0.9 0.9 0.4 0.9 0.9-0.4 0.9-0.9 0.9z"/>
	<path d="m9.7 11.4c0 1.2-1.8 1.2-1.8 0s1.8-1.2 1.8 0"/>
	<path d="m9.7 14c0 1.2-1.8 1.2-1.8 0s1.8-1.2 1.8 0"/>
	<path d="m7.1 1c0 1.2-1.8 1.2-1.8 0s1.8-1.3 1.8 0"/>
	<path d="m7.1 3.6c0 1.2-1.8 1.2-1.8 0s1.8-1.3 1.8 0"/>
	<path d="M7.1,6.2c0,1.2-1.8,1.2-1.8,0C5.2,5,7.1,5,7.1,6.2"/>
	<path d="m7.1 8.8c0 1.2-1.8 1.2-1.8 0-0.1-1.2 1.8-1.2 1.8 0"/>
	<path d="m6.1 12.3c-0.5 0-0.9-0.4-0.9-0.9s0.4-0.9 0.9-0.9 0.9 0.4 0.9 0.9c0.1 0.5-0.3 0.9-0.9 0.9z"/>
	<path d="m4.5 3.6c0 1.2-1.8 1.2-1.8 0s1.8-1.3 1.8 0"/>
	<path d="M4.5,6.2c0,1.2-1.8,1.2-1.8,0C2.6,5,4.5,5,4.5,6.2"/>
	<path d="m4.5 8.8c0 1.2-1.8 1.2-1.8 0s1.8-1.2 1.8 0"/>
	<path d="m1.8 3.6c0 1.2-1.8 1.2-1.8 0s1.8-1.3 1.8 0"/>
	<path d="m1.8 6.2c0 1.2-1.8 1.2-1.8 0s1.8-1.2 1.8 0"/>
</svg>
