"LECCE; BRINDISI; TARANTO; BARI; BARLETTA - ANDRIA - TRANI";"ADRIATICA GPL s.r.l.";"true";"true";"LIZZANELLO";"S.S LECCE-LIZZANELLO KM. 4,0";"LE";"73023";"adriaticagpl@tin.it";"0832-613013";"0832-613605";"40.3046191";"18.2214234"
"LECCE; BRINDISI; TARANTO; BARI; BARLETTA - ANDRIA - TRANI";"ADRIATICA GPL s.r.l.";"true";"true";"MODUGNO";"CONTRADA PALO, 51";"BA";"70026";"adriaticagpl@tin.it";"080-5356397";"080-5356393";"41.079137";"16.768998"
"LA SPEZIA; GENOVA; SAVONA; IMPERIA;MASSA CARRARA";"COMPASS s.p.a.";"true";"true";"IMPERIA";"VIA NAZIONALE, 375";"IM";"18100";"imperia@lacompass.it";"0183-297232";"0183-297127";"43.919312";"8.025409"
"LA SPEZIA; GENOVA; SAVONA; IMPERIA;MASSA CARRARA";"COMPASS s.p.a.";"true";"true";"RECCO";"VIA SAN ROCCO, 1";"GE";"16036";"recco@lacompass.it";"0185-722273/75041";"0185-74270";"44.373520";"9.152340"
"LA SPEZIA; GENOVA; SAVONA; IMPERIA;MASSA CARRARA";"COMPASS s.p.a.";"true";"true";"SARZANA";"VIA VARIANTE AURELIA, 89";"SP";"19038";"sarzana@lacompass.it";"0187-675158";"0187-1745199";"44.105798";"9.958545"
"SALERNO; AVELLINO;POTENZA;MATERA";"COMPASS s.p.a.";"true";"true";"VAGLIO BASILICATA";"ZONA P.I.P. - C.DA SOTTO PIONE";"PZ";"85100";"direzione@lacompass.it";"0971-305005";"0971-305006";"40.668483";"15.918727"
"ASCOLI PICENO;ISERNIA;CAMPOBASSO;L'AQUILA;PESCARA; CHIETI;TERAMO";"COPEMA s.r.l.";"true";"true";"CITTÀ SANT'ANGELO";"VIA PIANO DELLA CONA 133";"PE";"65016";"info@copema.it";"085-96401";"085-969145";"42.490862";"14.045659"
"L'AQUILA;PESCARA; CHIETI;TERAMO;ASCOLI PICENO;ISERNIA;CAMPOBASSO";"COPEMA s.r.l.";"true";"true";"GIULIANOVA";"VIA G. GALILEI, 533";"TE";"64022";"copemasrl@gmail.com";"085-8003016/8006042";"085-8008622";"42.778256";"13.948409"
"ORISTANO; CAGLIARI; MEDIO CAMPIDANO; CARBONIA - IGLESIAS";"DI.VEN.GAS s.a.s.";"true";"true";"SAN SPERATE";"S.P. 4 - KM. 9,344";"CA";"09026";"divengas@tiscali.it";"070-9600000/9601527";"070-96000354";"39.3117161";"9.0612563"
"UDINE;TRIESTE;GORIZIA; PORDENONE;VENEZIA; TREVISO; BELLUNO";"DIGAS s.r.l.";"true";"true";"COLLOREDO DI MONTE ALBANO";"VIA UDINE, 21";"UD";"33010";"info@digas.it";"0432-889666";"0432-889775";"46.152984";"13.153333"
"UDINE;TRIESTE;GORIZIA; PORDENONE;VENEZIA; TREVISO; BELLUNO";"DIGAS s.r.l.";"true";"true";"CONCORDIA SAGITTARIA";"VIA O. BRAVIN, 96";"VE";"33080";"info@digas.it";"0421-270411";"0421-275341";"45.754565";"12.811643"
"PALERMO; ENNA";"ECOCALOR s.r.l.";"true";"true";"CARINI";"VIA MATTEO PICONE snc - C.DA OLIVELLA";"PA";"90044";"ecocalor2002@libero.it";"091-8669122/8689046";"091-8662498";"38.131161";"13.181261"
"ANCONA;PESARO URBINO; MACERATA; FERMO";"ECOGAS s.r.l.";"true";"true";"FABRIANO";"VIA DELLE FORNACI, 92";"AN";"60044";"infoecogas@ecogasfabriano.it";"0732-629447";"0732-629449";"43.346473";"12.904986"
"FIRENZE";"ENIFUEL NORD S.p.A. - SAC PETROLI s.r.l.";"true";"true";"CALENZANO";"VIA ERBOSA, 29";"FI";"50041";"info@sacpetroli.it";"055-88800138";"0586 940389";"43.847503";"11.155536"
"FIRENZE";"ENIFUEL NORD S.p.A. - SAC PETROLI s.r.l.";"true";"true";"LIVORNO";"VIA LEONARDO DA VINCI, 23";"LI";"57123";"info@sacpetroli.it";"0586-942345";"0586 940389";"43.5822376";"10.3239251"
"LIVORNO";"F.LLI PAPI SRL";"false";"true";"PORTOFERRAIO";"VIA DEGLI ALTIFORNI 17/19";"LI";"57037";"fratellipapi@alice.it";"0565-95108";"0565-95349";"42.808324";"10.31218"
"VITERBO;RIETI;ROMA;L'AQUILA";"FOCOS IANNELLO s.r.l.";"true";"true";"ARDEA";"VIA PONTINA VECCHIA";"RM";"00040";"info@focosgpl.it";"06-4190303/9";"06-4192059";"41.648636";"12.539037"
"VITERBO;RIETI;ROMA;L'AQUILA";"FOCOS IANNELLO s.r.l.";"true";"true";"RIETI";"VIA SALARIA PER L'AQUILA 145";"RI";"02100";"info@focosgpl.it";"0746-274174";"0746-271659";"42.405775";"12.886157"
"VITERBO;RIETI;ROMA;L'AQUILA";"FOCOS IANNELLO s.r.l.";"true";"true";"VITERBO";"S.S. CASSIA NORD -KM 86,500";"VT";"01100";"info@focosgpl.it";"0761-252011";"0761-250302";"42.440238";"12.088363"
"COMO; LODI; BERGAMO; MILANO;PAVIA; LECCO; VARESE;MONZA BRIANZA;CREMONA;ALESSANDRIA";"FULLGAS s.r.l.";"true";"true";"SANNAZZARO DE' BURGONDI";"VIA DELL'INDUSTRIA, 7";"PV";"27039";"info@full-gas.it";"0382-901180/901236";"0382-906231";"45.105300";"8.910717"
"AOSTA";"GAS ENERGY s.p.a.";"true";"true";"SAINT-CHRISTOPHE";"LOC. GRAND CHEMIN 30";"AO";"11020";"info@gasenergyspa.it";"0165-32349";"0165-44624";"45.738268";"7.350195"
"SONDRIO";"GAS ENERGY s.p.a.";"true";"true";"SONDRIO";"VIA DE SIMONI, 12";"SO";"23100";"info.valtellina@gasenergyspa.it";"0331-245817";"0331-708843";"46.171602";"9.867628"
"TORINO; BIELLA; VERBANO - CUSIO - OSSOLA; NOVARA; VERCELLI";"GAS ENERGY s.p.a.";"true";"true";"VOLPIANO";"CORSO EUROPA, 600";"TO";"10088";"info@gasenergyspa.it";"011-9882233";"011-9953376";"45.184209";"7.792383"
"MESSINA; CATANIA; SIRACUSA; RAGUSA";"GASMESS s.r.l.";"true";"true";"MESSINA";"VIA A. SILIGATO - PAL. C";"ME";"98124";"info@gasmess.it";"090-2938601/2";"090-2923911";"38.1938137";"15.5540152"
"MESSINA; CATANIA; SIRACUSA; RAGUSA";"GASMESS s.r.l.";"true";"true";"SIRACUSA";"S.S. 115 C.DA PANTANELLI";"SR";"96100";"info@gasmess.it";"0931-750519";"0931 758013";"37.0611952";"15.2621001"
"SALERNO; AVELLINO;NAPOLI; BENEVENTO;FOGGIA";"GPL SERVICE s.r.l.";"true";"true";"CASALNUOVO DI NAPOLI";"VIALE DEGLI ABETI";"NA";"80013";"gplservicesrl@gmail.com";"081-8429046";"081-8429912";"40.912850";"14.361828"
"AGRIGENTO; CATANIA; CALTANISSETTA; ENNA";"KEROGAS s.r.l.";"true";"true";"AGRIGENTO";"C.DA SAN BENEDETTO";"AG";"92021";"info@kerogas.biz";"0922-591040";"0922-591274";"37.2779815";"13.6212151"
"AREZZO;SIENA; GROSSETO; LIVORNO";"LOGIGAS SRL";"true";"true";"AREZZO";"VIA CASE NUOVE DI CECILIANO, 309";"AR";"52100";"info@logigas.it";"0575-321044";"0575-320151";"43.4584797";"11.8883495"
"AREZZO;SIENA; GROSSETO; LIVORNO";"LOGIGAS SRL";"true";"true";"CASTIGLIONE DELLA PESCAIA";"LOC. MACCHIASCANDONA";"GR";"58043";"info@logigas.it";"0564-944007";"0564-944049";"42.8054858";"11.0016393"
"VICENZA; PADOVA; VERONA; TREVISO; ROVIGO; VENEZIA;BRESCIA; MANTOVA";"MAGIGAS s.r.l.";"true";"true";"TREVISO";"VIA ZERMANESE, 156/D";"TV";"31100";"info@magigas.net";"0422-346424";"0422-326297";"45.64987";"12.25127"
"VICENZA; PADOVA; VERONA; TREVISO; ROVIGO; VENEZIA;BRESCIA; MANTOVA";"MAGIGAS s.r.l.";"true";"true";"VERONA";"VIA BRESCIANA, 22/A";"VR";"37139";"info@magigas.net";"045-8903682";"045-8904068";"45.446895";"10.9309481"
"ISERNIA;CAMPOBASSO;BENEVENTO;CASERTA";"MARANPETROLI s.r.l.";"true";"true";"SAN GIORGIO A CREMANO";"VIA TUFARELLI 98/100";"NA";"80046";"info@maranpetroli.com";"081-5746350/1";"081-5740046";"40.844554";"14.347832"
"CATANZARO;COSENZA; CROTONE";"MAUSER GAS s.r.l.";"true";"true";"RENDE";"VIA NICCOLO' DA CONTI CONTRADA LECCO Z.I.";"CS";"87036";"mausergas@email.it";"0984-937520";"0984-937551";"39.361815";"16.250641"
"CATANZARO;COSENZA; CROTONE";"MAUSER GAS s.r.l.";"true";"true";"SELLIA MARINA";"LOC. PETRIZIA";"CZ";"88050";"mausergas@email.it";"0961-962878";"0961-962877";"38.906504";"16.743282"
"FROSINONE;LATINA; ROMA";"OVEGAS s.r.l.";"true";"true";"CECCANO";"STRADA A.S.I.V, N.5";"FR";"03100";"info@ovegas.it";"0775-290940";"0775-640053";"41.599453";"13.298864"
"BOLZANO;TREVISO; BELLUNO;PORDENONE";"PETROLCAPA s.r.l.";"true";"true";"ORA";"VIA NAZIONALE, 73/A";"BZ";"39040";"info@petrolcapa.it";"0471-954216";"0471-954265";"46.4066056";"11.3213972"
"CUNEO; ASTI; TORINO";"PIUMETTI GAS s.n.c.";"true";"true";"FOSSANO";"VIA CERESOLIA, 3";"CN";"12045";"piumettigas@alice.it";"0172-691186";"0172-693636";"44.554767";"7.712235"
"VIBO VALENTIA; REGGIO CALABRIA";"REGGIO GAS ENERGY s.r.l.";"true";"true";"REGGIO DI CALABRIA";"VIA PASSEGGIATORE, 7";"RC";"89060";"info@energy.reggio-gas.it";"0965-342718";"0965-342816";"38.111301";"15.647291"
"TRAPANI";"RICCARDO SANGES & C.s.r.l.";"true";"true";"TRAPANI";"VIA LIBICA, 19";"TP";"91100";"info@tridentgroup.it";"0923-531777/531050";"0923-503140";"38.0111933";"12.5356513"
"MASSA CARRARA; LUCCA;LA SPEZIA";"S.T. ENERGY SRL";"true";"true";"FOSDINOVO";"VIA AURELIA, 42";"MS";"54035";"info.s.t.energy@gmail.com";"0187-693013";"0187-673435";"44.106732";"9.971878199999999"
"PRATO;PISTOIA; FIRENZE; PISA; LIVORNO; LUCCA;PESARO URBINO;BOLOGNA;FORLÌ - CESENA; RIMINI; RAVENNA";"SAC PETROLI s.r.l.";"true";"true";"CESENA";"VIA DISMANO, 331";"FC";"47023";"info@sacpetroli.it";"0547-331039";"0547-333345";"44.1481267";"12.2183095"
"TRENTO";"SAIT SOC.COOP. a r.l.";"true";"true";"TRENTO";"VIA DEL COMMERCIO, 27";"TN";"38100";"enigasgpl@sait.tn.it";"0461-823575/823564";"0461-822540";"46.0918118";"11.1048434"
"SASSARI; OLBIA - TEMPIO; NUORO; OGLIASTRA; CAGLIARI; ORISTANO; CARBONIA - IGLESIAS";"SODIGAS s.p.a.";"true";"true";"SASSARI";"LOC. GIOGANTI S.S. 131 KM 223 - STRADA PER BANCALI";"SS";"07100";"info@sodigas.com";"079-390990/873";"070-390732";"40.7259269";"8.5556826"
"SASSARI; OLBIA - TEMPIO; NUORO; OGLIASTRA; CAGLIARI; ORISTANO; CARBONIA - IGLESIAS";"SODIGAS s.p.a.";"true";"true";"SESTU";"STRADA PROV.LE 8 SESTU ELMAS";"CA";"09028";"info@sodigas.com";"070-22041/2";"070-22043";"39.2672224";"9.052928"
"PERUGIA;TERNI";"UMBRIAGAS s.p.a.";"true";"true";"ASSISI";"VIA DELLA PORZIUNCOLA, 5";"PG";"06088";"info@umbriagas.it";"075-8043428";"075-8042784";"43.0397699";"12.5598007"
"PERUGIA;TERNI";"UMBRIAGAS s.p.a.";"true";"true";"CITTÀ DI CASTELLO";"VIA DEI LAGHI, 2";"PG";"06012";"colcelli@umbriagas.it";"075-8642233";"075-8642234";"43.374380";"12.189613"
"PERUGIA;TERNI";"UMBRIAGAS s.p.a.";"true";"true";"TERNI";"VIA FILIPPO TURATI, 2";"TR";"05100";"umbriagas.terni@franchitg.it";"0744-287585";"0744-226984";"42.5554329";"12.6450701"
"FERRARA;MODENA; REGGIO EMILIA; PARMA;PIACENZA;ROVIGO";"VERONESI";"true";"true";"POGGIO RENATICO";"VIA UCCELLINO, 138";"FE";"44028";"massimo@mveronesi.it";"0532-825851/825024";"0532-825656";"44.771095";"11.512298"
